{
	"type": "forge:ore_shaped",
	"result": {
		"item": "factorytech:locationcard"
	},
	"pattern": [
	"glg",
	"ppp"
	],
	"key": {
		"g": {
			"item": "minecraft:glowstone_dust"
		},
		"l": {
			"item": "#lapis"
		},
		"p": {
		    "item": "minecraft:paper"
		}
	}
}