{
	"forge_marker": 1,
	"defaults": {
		"custom": { "flip-v": true},
		"textures": {
			"#None": "factorytech:blocks/model_tex_sheet"
		}
	},
	"variants": {
		"facing": {
			"north": {},
			"south": {"y": 180},
			"west": {"y" : 270},
			"east": {"y": 90},
			"up": {"x": -90},
			"down": {"x": 90}
		},
		"partid": {
		    "0": {"model": "factorytech:conveyor.obj"},
		    "1": {}
		},
		"inventory": [{
		    "model": "factorytech:conveyor.obj",
			"transform": "forge:default-block"
		}],
		"normal": [{}]
	}
}
