{
	"forge_marker": 1,
	"defaults": {
		"custom": { "flip-v": true},
		"model": "factorytech:redplate.obj"
	},
	"variants": {
		"facing": {
			"north": {"y": 90},
			"south": {"y": 270},
			"west": {},
			"east": {"y": 180},
			"up": {"x": -90},
			"down": {"x": 90}
		},
		"partid": {
            "0": {},
            "1": {}
        },
        "powered": {
            "true": {},
            "false": {}
        },
		"inventory": [{
		    "model": "factorytech:counter_inv.obj",
			"transform": "forge:default-block"
		}],
		"normal": [{}]
	}
}
