{
    "type": "forge:ore_shaped",
    "result": {
        "item": "factorytech:coregen"
    },
    "pattern": [
        "ici",
        "crc",
        "ici"
    ],
    "key": {
        "i": {
            "item": "factorytech:ingot",
            "data": 4
        },
        "r": {
            "item": "minecraft:redstone_block"
        },
        "c": {
            "item": "#core"
        }
    }
}