{
    "type": "forge:ore_shaped",
    "result": {
        "item": "factorytech:charger"
    },
    "pattern": [
        " wo",
        "wco",
        "oob"
    ],
    "key": {
        "w": {
            "item": "#wire"
        },
        "o": {
            "item": "minecraft:obsidian"
        },
        "c": {
            "item": "factorytech:ingot",
            "data": 4
        },
        "b": {
            "item": "#battery"
        }
    }
}