{
    "type": "forge:ore_shaped",
    "result": {
        "item": "factorytech:deepdrill"
    },
    "pattern": [
       "vvv",
       "bcb",
       "ydv"
    ],
    "key": {
        "v": {
            "item": "factorytech:ingot",
            "data": 4
        },
        "b": {
            "item": "#circ2"
        },
        "c": {
            "item": "#core"
        },
        "y": {
            "item": "#battery"
        },
        "d": {
            "item": "factorytech:machinepart",
            "data": 72
        }
    }
}