{
    "type": "forge:ore_shaped",
    "result": {
        "item": "factorytech:compacthopper"
    },
    "pattern": [
        "ccc",
        "c c",
        " p "
    ],
    "key": {
        "p": {
            "item": "factorytech:pipe"
        },
        "c": {
            "item": "minecraft:cobblestone"
        }
    }
}