{
	"type": "forge:ore_shaped",
	"result": {
		"item": "factorytech:trapdoorconveyor",
		"count": 1
	},
	"pattern": [
		" r ",
		" c ",
		" t "
	],
	"key": {
		"r": {
			"item": "minecraft:redstone"
		},
		"c": {
			"item": "factorytech:conveyor"
		},
		"t": {
		    "item": "minecraft:trapdoor"
		}
	}
}