{
    "type": "forge:ore_shaped",
    "result": {
        "item": "factorytech:planeshifter",
        "count": 1
    },
    "pattern": [
        "iii",
        "cec",
        "iii"
    ],
    "key": {
        "i": {
            "item": "factorytech:ingot",
            "data": 4
        },
        "c": {
            "item": "#circ3"
        },
        "e": {
            "item": "minecraft:end_stone"
        }
    }
}