{
	"type": "forge:ore_shaped",
	"result": {
		"item": "factorytech:pulsecounter"
	},
	"pattern": [
		"srs",
		"sqs",
		"rrr"
	],
	"key": {
		"r": {
			"item": "minecraft:redstone"
		},
		"q": {
			"item": "minecraft:quartz"
		},
		"s": {
			"item": "minecraft:stone_slab",
			"data": 0
		}
	}
}
		