# Blender v2.78 (sub 0) OBJ File: ''
# www.blender.org
mtllib batterygen.mtl
o Cube
v 0.125000 0.625000 0.375000
v 0.875000 0.625000 0.375000
v 0.125000 0.375000 0.375000
v 0.875000 0.375000 0.375000
v 0.625000 0.625000 0.125000
v 0.625000 0.625000 0.875000
v 0.625000 0.375000 0.125000
v 0.625000 0.375000 0.875000
v 0.625000 0.125000 0.375000
v 0.625000 0.875000 0.375000
v 0.375000 0.875000 0.375000
v 0.375000 0.125000 0.375000
v 0.375000 0.125000 0.125000
v 0.375000 0.875000 0.875000
v 0.375000 0.625000 0.875000
v 0.375000 0.375000 0.875000
v 0.375000 0.125000 0.875000
v 0.375000 0.875000 0.125000
v 0.375000 0.375000 0.125000
v 0.375000 0.625000 0.125000
v 0.625000 0.125000 0.125000
v 0.625000 0.875000 0.125000
v 0.625000 0.125000 0.875000
v 0.625000 0.875000 0.875000
v 0.125000 0.375000 0.125000
v 0.875000 0.375000 0.125000
v 0.875000 0.375000 0.875000
v 0.125000 0.375000 0.875000
v 0.125000 0.625000 0.875000
v 0.125000 0.625000 0.125000
v 0.875000 0.625000 0.125000
v 0.875000 0.625000 0.875000
v 0.875000 0.875000 0.125000
v 0.875000 0.125000 0.125000
v 0.875000 0.875000 0.875000
v 0.875000 0.125000 0.875000
v 0.125000 0.875000 0.125000
v 0.125000 0.125000 0.125000
v 0.125000 0.875000 0.875000
v 0.125000 0.125000 0.875000
v 0.875000 0.875000 0.375000
v 0.875000 0.125000 0.375000
v 0.125000 0.875000 0.375000
v 0.125000 0.125000 0.375000
v 0.125000 0.625000 0.625000
v 0.125000 0.375000 0.625000
v 0.125000 0.875000 0.625000
v 0.875000 0.125000 0.625000
v 0.375000 0.125000 0.625000
v 0.375000 0.875000 0.625000
v 0.625000 0.875000 0.625000
v 0.625000 0.125000 0.625000
v 0.875000 0.375000 0.625000
v 0.875000 0.625000 0.625000
v 0.875000 0.875000 0.625000
v 0.125000 0.125000 0.625000
v 0.000000 0.625000 0.625000
v 0.000000 0.625000 0.375000
v 0.000000 0.375000 0.625000
v 0.000000 0.375000 0.375000
v 1.000000 0.625000 0.375000
v 1.000000 0.375000 0.375000
v 1.000000 0.375000 0.625000
v 1.000000 0.625000 0.625000
v 0.375000 0.625000 0.000000
v 0.625000 0.625000 0.000000
v 0.375000 0.375000 0.000000
v 0.625000 0.375000 0.000000
v 0.375000 0.625000 1.000000
v 0.375000 0.375000 1.000000
v 0.625000 0.625000 1.000000
v 0.625000 0.375000 1.000000
v 0.625000 0.000000 0.375000
v 0.375000 0.000000 0.375000
v 0.375000 1.000000 0.375000
v 0.625000 1.000000 0.375000
v 0.375000 0.000000 0.625000
v 0.375000 1.000000 0.625000
v 0.625000 1.000000 0.625000
v 0.625000 0.000000 0.625000
vt 0.1558 0.7825
vt 0.1558 0.8442
vt 0.0942 0.8442
vt 0.0942 0.7825
vt 0.0325 0.8442
vt 0.0325 0.7825
vt 0.0938 0.9687
vt 0.0313 0.9687
vt 0.0313 0.9062
vt 0.0938 0.9062
vt 0.0938 0.9687
vt 0.0313 0.9687
vt 0.0313 0.9062
vt 0.0938 0.9062
vt 0.2187 0.9062
vt 0.2187 0.9687
vt 0.1562 0.9687
vt 0.1562 0.9062
vt 0.1562 0.8438
vt 0.2187 0.8438
vt 0.2187 0.9062
vt 0.1562 0.9062
vt 0.0313 0.7813
vt 0.0938 0.7813
vt 0.0938 0.8438
vt 0.0313 0.8438
vt 0.1562 0.7813
vt 0.1562 0.8438
vt 0.2187 0.8438
vt 0.1562 0.8438
vt 0.1562 0.7813
vt 0.2187 0.7813
vt 0.2187 0.7813
vt 0.2187 0.8438
vt 0.4062 0.4062
vt 0.3438 0.4062
vt 0.3438 0.3750
vt 0.4062 0.3750
vt 0.1562 0.8438
vt 0.0938 0.8438
vt 0.0938 0.7813
vt 0.1562 0.7813
vt 0.1558 0.9058
vt 0.1558 0.9675
vt 0.0942 0.9675
vt 0.0942 0.9058
vt 0.2175 0.7825
vt 0.2175 0.8442
vt 0.0938 0.9062
vt 0.0313 0.9062
vt 0.2175 0.9058
vt 0.3438 0.3438
vt 0.4062 0.3438
vt 0.4062 0.3750
vt 0.3438 0.3750
vt 0.2187 0.8438
vt 0.2187 0.7813
vt 0.0938 0.8438
vt 0.0938 0.7813
vt 0.2175 0.9675
vt 0.2187 0.9062
vt 0.1562 0.9062
vt 0.0938 0.7813
vt 0.0938 0.8438
vt 0.0313 0.8438
vt 0.0313 0.7813
vt 0.0938 0.9687
vt 0.0313 0.9062
vt 0.0938 0.9062
vt 0.0938 0.9687
vt 0.0313 0.9687
vt 0.0325 0.9058
vt 0.0938 0.9062
vt 0.0313 0.9062
vt 0.1562 0.9687
vt 0.1562 0.9687
vt 0.0313 0.8438
vt 0.0313 0.7813
vt 0.0313 0.8438
vt 0.0325 0.9675
vt 0.0938 0.9687
vt 0.0313 0.9687
vt 0.2187 0.9687
vt 0.3438 0.4688
vt 0.3438 0.4062
vt 0.3750 0.4062
vt 0.3750 0.4688
vt 0.2187 0.8438
vt 0.1562 0.8438
vt 0.0313 0.8438
vt 0.0938 0.8438
vt 0.2187 0.7813
vt 0.1562 0.7813
vt 0.1562 0.9687
vt 0.1562 0.9062
vt 0.1562 0.9687
vt 0.1562 0.9062
vt 0.2187 0.9062
vt 0.2187 0.9687
vt 0.2187 0.9062
vt 0.0313 0.7813
vt 0.0938 0.7813
vt 0.1562 0.7813
vt 0.3438 0.2812
vt 0.3438 0.3438
vt 0.3750 0.3438
vt 0.3750 0.2812
vt 0.4688 0.4062
vt 0.4062 0.4062
vt 0.4062 0.3750
vt 0.4688 0.3750
vt 0.4062 0.3438
vt 0.4688 0.3438
vt 0.4688 0.3750
vt 0.4062 0.3750
vt 0.2187 0.7813
vt 0.3438 0.4062
vt 0.3438 0.4688
vt 0.4062 0.4688
vt 0.4062 0.4062
vt 0.4062 0.4062
vt 0.4062 0.4688
vt 0.3438 0.4688
vt 0.3438 0.4062
vt 0.4062 0.2812
vt 0.4062 0.3438
vt 0.3750 0.3438
vt 0.3750 0.2812
vt 0.3438 0.4062
vt 0.3438 0.4688
vt 0.3750 0.4688
vt 0.3750 0.4062
vt 0.4062 0.4062
vt 0.4062 0.4688
vt 0.3750 0.4688
vt 0.3750 0.4062
vt 0.3438 0.3438
vt 0.3438 0.2812
vt 0.3750 0.2812
vt 0.3750 0.3438
vt 0.4062 0.3438
vt 0.4062 0.2812
vt 0.3750 0.2812
vt 0.3750 0.3438
vt 0.4062 0.4688
vt 0.4062 0.4062
vt 0.3750 0.4062
vt 0.3750 0.4688
vt 0.4062 0.3438
vt 0.4062 0.4062
vt 0.3438 0.4062
vt 0.3438 0.3438
vt 0.3438 0.3438
vt 0.3438 0.4062
vt 0.4062 0.4062
vt 0.4062 0.3438
vt 0.3438 0.4062
vt 0.3438 0.3438
vt 0.3750 0.3438
vt 0.3750 0.4062
vt 0.3438 0.3438
vt 0.3438 0.4062
vt 0.3750 0.4062
vt 0.3750 0.3438
vt 0.3438 0.4062
vt 0.4062 0.4062
vt 0.4062 0.3750
vt 0.3438 0.3750
vt 0.4062 0.3438
vt 0.3750 0.4062
vt 0.3750 0.3438
vt 0.4062 0.3438
vt 0.3438 0.3750
vt 0.4062 0.3750
vt 0.4062 0.4062
vt 0.4062 0.3438
vt 0.3750 0.3438
vt 0.3750 0.4062
vt 0.4062 0.4062
vt 0.4688 0.4062
vt 0.4688 0.3438
vt 0.4062 0.3438
vt 0.4688 0.4062
vt 0.4062 0.4062
vt 0.4062 0.3438
vt 0.4688 0.3438
vt 0.2812 0.3438
vt 0.3438 0.3438
vt 0.3438 0.3750
vt 0.2812 0.3750
vt 0.2812 0.4062
vt 0.3438 0.4062
vt 0.3438 0.3750
vt 0.2812 0.3750
vt 0.4688 0.3438
vt 0.4062 0.3438
vt 0.4062 0.3750
vt 0.4688 0.3750
vt 0.3438 0.4062
vt 0.2812 0.4062
vt 0.2812 0.3750
vt 0.3438 0.3750
vt 0.4062 0.4062
vt 0.4688 0.4062
vt 0.4688 0.3750
vt 0.4062 0.3750
vt 0.3438 0.3438
vt 0.2812 0.3438
vt 0.2812 0.3750
vt 0.3438 0.3750
vn 0.0000 0.0000 1.0000
vn 0.0000 1.0000 0.0000
vn 0.0000 -1.0000 0.0000
vn 1.0000 0.0000 0.0000
vn -1.0000 0.0000 0.0000
vn 0.0000 0.0000 -1.0000
usemtl Material
s off
f 23/1/1 8/2/1 16/3/1 17/4/1
f 17/4/1 16/3/1 28/5/1 40/6/1
f 18/7/2 37/8/2 43/9/2 11/10/2
f 21/11/3 34/12/3 42/13/3 9/14/3
f 31/15/4 33/16/4 41/17/4 2/18/4
f 45/19/5 47/20/5 43/21/5 1/22/5
f 38/23/6 25/24/6 19/25/6 13/26/6
f 25/24/6 30/27/6 20/28/6 19/25/6
f 56/29/3 49/30/3 17/31/3 40/32/3
f 30/27/6 37/33/6 18/34/6 20/28/6
f 6/35/2 15/36/2 69/37/2 71/38/2
f 51/39/2 50/40/2 14/41/2 24/42/2
f 6/43/1 24/44/1 14/45/1 15/46/1
f 36/47/1 27/48/1 8/2/1 23/1/1
f 13/26/6 19/25/6 7/49/6 21/50/6
f 27/48/1 32/51/1 6/43/1 8/2/1
f 20/52/2 5/53/2 66/54/2 65/55/2
f 55/56/2 51/39/2 24/42/2 35/57/2
f 49/30/3 52/58/3 23/59/3 17/31/3
f 32/51/1 35/60/1 24/44/1 6/43/1
f 20/28/6 18/34/6 22/61/6 5/62/6
f 48/63/4 53/64/4 27/65/4 36/66/4
f 21/50/6 7/49/6 26/67/6 34/12/6
f 44/68/5 3/69/5 25/70/5 38/71/5
f 16/3/1 15/46/1 29/72/1 28/5/1
f 53/64/4 54/73/4 32/74/4 27/65/4
f 7/49/6 5/62/6 31/75/6 26/67/6
f 3/69/5 1/22/5 30/76/5 25/70/5
f 50/40/2 47/77/2 39/78/2 14/41/2
f 52/58/3 48/79/3 36/66/3 23/59/3
f 15/46/1 14/45/1 39/80/1 29/72/1
f 54/73/4 55/81/4 35/82/4 32/74/4
f 5/62/6 22/61/6 33/16/6 31/75/6
f 1/22/5 43/21/5 37/83/5 30/76/5
f 54/84/1 53/85/1 63/86/1 64/87/1
f 26/88/4 31/15/4 2/18/4 4/89/4
f 56/90/5 46/91/5 3/69/5 44/68/5
f 34/92/4 26/88/4 4/89/4 42/93/4
f 13/94/3 21/11/3 9/14/3 12/95/3
f 33/16/2 22/96/2 10/97/2 41/98/2
f 22/96/2 18/7/2 11/10/2 10/97/2
f 38/99/3 13/94/3 12/95/3 44/100/3
f 40/101/5 28/102/5 46/91/5 56/90/5
f 28/102/5 29/103/5 45/19/5 46/91/5
f 2/18/4 41/17/4 55/81/4 54/73/4
f 9/14/3 42/13/3 48/79/3 52/58/3
f 11/10/2 43/9/2 47/77/2 50/40/2
f 53/104/3 4/105/3 62/106/3 63/107/3
f 42/93/4 4/89/4 53/64/4 48/63/4
f 52/108/1 49/109/1 77/110/1 80/111/1
f 41/98/2 10/97/2 51/39/2 55/56/2
f 50/112/1 51/113/1 79/114/1 78/115/1
f 44/100/3 12/95/3 49/30/3 56/29/3
f 29/103/5 39/116/5 47/20/5 45/19/5
f 59/117/5 57/118/5 58/119/5 60/120/5
f 62/121/4 61/122/4 64/123/4 63/124/4
f 45/125/2 1/126/2 58/127/2 57/128/2
f 4/129/6 2/130/6 61/131/6 62/132/6
f 46/133/1 45/134/1 57/135/1 59/136/1
f 2/137/2 54/138/2 64/139/2 61/140/2
f 3/141/3 46/142/3 59/143/3 60/144/3
f 1/145/6 3/146/6 60/147/6 58/148/6
f 72/149/1 71/150/1 69/151/1 70/152/1
f 67/153/6 65/154/6 66/155/6 68/156/6
f 5/157/4 7/158/4 68/159/4 66/160/4
f 19/161/5 20/162/5 65/163/5 67/164/5
f 16/165/3 8/166/3 72/167/3 70/168/3
f 8/169/4 6/35/4 71/170/4 72/171/4
f 7/172/3 19/161/3 67/173/3 68/174/3
f 15/175/5 16/176/5 70/177/5 69/178/5
f 74/179/3 73/180/3 80/181/3 77/182/3
f 76/183/2 75/184/2 78/185/2 79/186/2
f 51/187/4 10/188/4 76/189/4 79/190/4
f 49/191/5 12/192/5 74/193/5 77/194/5
f 10/195/6 11/196/6 75/197/6 76/198/6
f 9/199/4 52/200/4 80/201/4 73/202/4
f 12/203/6 9/204/6 73/205/6 74/206/6
f 11/207/5 50/208/5 78/209/5 75/210/5
