# Blender v2.79 (sub 0) OBJ File: ''
# www.blender.org
mtllib compacthopper_side.mtl
o Cube.002
v 0.750000 0.250000 0.625000
v 0.750000 0.250000 0.750000
v 0.250000 0.250000 0.750000
v 0.250000 0.250000 0.625000
v 0.750000 1.000000 0.625000
v 0.250000 1.000000 0.625000
v 0.250000 1.000000 0.750000
v 0.750000 1.000000 0.750000
v 0.750000 0.500000 0.625000
v 0.750000 0.500000 0.750000
v 0.250000 0.500000 0.750000
v 0.250000 0.500000 0.375000
v 0.250000 1.000000 0.375000
v 0.250000 1.000000 0.250000
v 0.250000 0.500000 0.250000
v 0.750000 0.500000 0.250000
v 0.750000 0.250000 0.250000
v 0.250000 0.250000 0.250000
v 0.750000 1.000000 0.250000
v 0.250000 0.250000 0.375000
v 0.750000 0.500000 0.375000
v 0.750000 0.250000 0.375000
v 0.250000 0.500000 0.625000
v 0.000000 0.500000 0.625000
v 0.000000 0.250000 0.625000
v 0.750000 1.000000 0.375000
v 0.000000 0.500000 0.375000
v 0.000000 0.250000 0.375000
vt 0.125000 0.593750
vt 0.125000 0.562500
vt -0.000000 0.562500
vt -0.000000 0.593750
vt 0.687487 0.593756
vt 0.562513 0.593756
vt 0.562513 0.562512
vt 0.687487 0.562512
vt 0.156250 0.562500
vt 0.156250 0.687500
vt 0.125000 0.687500
vt 0.125000 0.562500
vt 0.187500 0.562500
vt 0.187500 0.687500
vt 0.062500 0.687500
vt 0.062500 0.562500
vt 0.156250 0.562500
vt 0.156250 0.687500
vt 0.187500 0.687500
vt 0.187500 0.562500
vt 0.125000 0.750000
vt 0.125000 0.687500
vt -0.000000 0.687500
vt -0.000000 0.750000
vt 0.125000 0.625000
vt 0.125000 0.500000
vt -0.000000 0.500000
vt -0.000000 0.625000
vt 0.156250 0.500000
vt 0.187500 0.500000
vt 0.125000 0.500000
vt -0.000000 0.562500
vt -0.000000 0.500000
vt 0.156250 0.500000
vt 0.250000 0.500000
vt 0.250000 0.562500
vt 0.218750 0.562500
vt 0.218750 0.500000
vt 0.187500 0.875000
vt 0.187500 0.937500
vt 0.125000 0.937500
vt 0.125000 0.875000
vt 0.093750 0.562500
vt 0.093750 0.687500
vt 0.250000 0.687500
vt 0.218750 0.687500
vt 0.687487 0.687487
vt 0.562513 0.687487
vt 0.562513 0.656244
vt 0.687487 0.656244
vt 0.125000 0.656250
vt -0.000000 0.656250
vt 0.062500 0.500000
vt 0.093750 0.500000
vt 0.093750 0.875000
vt 0.093750 0.937500
vt 0.156250 0.937500
vt 0.156250 0.875000
vt 0.187500 0.906250
vt 0.187500 0.968750
vt 0.125000 0.968750
vt 0.125000 0.906250
vt 0.187500 0.937500
vt 0.187500 0.875000
vt 0.125000 0.875000
vt 0.125000 0.937500
vt 0.187500 0.968750
vt 0.187500 0.906250
vt 0.125000 0.906250
vt 0.125000 0.968750
vn 0.0000 -1.0000 -0.0000
vn 0.0000 1.0000 0.0000
vn 1.0000 -0.0000 0.0000
vn 0.0000 -0.0000 1.0000
vn -1.0000 0.0000 0.0000
vn 0.0000 0.0000 -1.0000
usemtl Material.002
s 1
f 1/1/1 2/2/1 3/3/1 4/4/1
f 5/5/2 6/6/2 7/7/2 8/8/2
f 9/9/3 5/10/3 8/11/3 10/12/3
f 10/13/4 8/14/4 7/15/4 11/16/4
f 12/17/5 13/18/5 14/19/5 15/20/5
f 16/21/6 17/22/6 18/23/6 15/24/6
f 19/25/6 16/26/6 15/27/6 14/28/6
f 20/29/5 12/17/5 15/20/5 18/30/5
f 2/31/4 10/12/4 11/32/4 3/33/4
f 1/34/3 9/9/3 10/12/3 2/31/3
f 17/35/3 16/36/3 21/37/3 22/38/3
f 4/39/4 23/40/4 24/41/4 25/42/4
f 23/43/5 6/44/5 13/18/5 12/17/5
f 16/36/3 19/45/3 26/46/3 21/37/3
f 19/47/2 14/48/2 13/49/2 26/50/2
f 17/22/1 22/51/1 20/52/1 18/23/1
f 11/16/5 7/15/5 6/44/5 23/43/5
f 3/53/5 11/16/5 23/43/5 4/54/5
f 22/38/3 21/37/3 9/9/3 1/34/3
f 21/37/3 26/46/3 5/10/3 9/9/3
f 26/50/2 13/49/2 6/6/2 5/5/2
f 22/51/1 1/1/1 4/4/1 20/52/1
f 25/55/5 24/56/5 27/57/5 28/58/5
f 23/59/2 12/60/2 27/61/2 24/62/2
f 12/63/6 20/64/6 28/65/6 27/66/6
f 20/67/1 4/68/1 25/69/1 28/70/1
