# Blender v2.79 (sub 0) OBJ File: ''
# www.blender.org
mtllib mobfan.mtl
o Cube
v 1.000000 0.000000 0.000000
v 1.000000 0.000000 0.500000
v -0.000000 0.000000 0.500000
v 0.000000 0.000000 -0.000000
v 1.000000 1.000000 0.000000
v 1.000000 1.000000 0.500000
v -0.000000 1.000000 0.500000
v 0.000000 1.000000 0.000000
v 0.937500 0.000000 -0.000000
v 0.937500 0.000000 0.500000
v 0.937500 1.000000 0.000000
v 0.937500 1.000000 0.500000
v 0.062500 0.000000 -0.000000
v 0.062500 0.000000 0.500000
v 0.062500 1.000000 0.000000
v 0.062500 1.000000 0.500000
v 1.000000 0.937500 0.000000
v 1.000000 0.937500 0.500000
v -0.000000 0.937500 0.500000
v 0.000000 0.937500 -0.000000
v 0.937500 0.937500 0.000000
v 0.937500 0.937500 0.500000
v 0.062500 0.937500 0.000000
v 1.000000 0.062500 0.000000
v 1.000000 0.062500 0.500000
v -0.000000 0.062500 0.500000
v 0.000000 0.062500 -0.000000
v 0.937500 0.062500 0.000000
v 0.062500 0.062500 -0.000000
v 0.062500 0.937500 0.500000
v 0.937500 0.062500 0.500000
v 0.062500 0.062500 0.500000
v 0.000000 0.062500 0.437500
v -0.000001 -0.000000 1.000000
v 0.999999 0.937500 1.000000
v 0.999999 1.000000 1.000000
v -0.000001 0.937500 1.000000
v -0.000001 1.000000 1.000000
v 0.062499 1.000000 1.000000
v 0.999999 -0.000000 1.000000
v 0.937499 -0.000000 1.000000
v 0.937499 1.000000 1.000000
v 1.000000 0.062500 0.437500
v 0.062499 0.062500 1.000000
v 1.000000 0.937500 0.437500
v 0.062499 0.937500 1.000000
v 0.000000 0.937500 0.437500
v 0.062500 0.000000 0.437500
v 0.937500 0.062500 1.000000
v 0.062500 1.000000 0.437500
v 0.062500 -0.000000 1.000000
v 0.937500 0.000000 0.437500
v 0.937500 1.000000 0.437500
v -0.000000 1.000000 0.437500
v 1.000000 0.062500 1.000000
v 1.000000 1.000000 0.437500
v -0.000000 0.062500 1.000000
v 0.000000 0.000000 0.437500
v 0.937500 0.937500 1.000000
v 1.000000 0.000000 0.437500
vt 0.015631 0.750024
vt 0.015631 0.765648
vt 0.000006 0.765648
vt 0.000006 0.750024
vt 0.015630 0.765782
vt 0.000006 0.765777
vt 0.000012 0.750153
vt 0.015635 0.750158
vt 0.015649 0.984370
vt 0.015649 0.999994
vt 0.000025 0.999994
vt 0.000025 0.984370
vt 0.249982 0.500027
vt 0.234360 0.500027
vt 0.234359 0.375044
vt 0.249982 0.375044
vt 0.109405 0.734360
vt 0.109405 0.749983
vt 0.000044 0.749983
vt 0.000044 0.734361
vt 0.015647 0.734353
vt 0.015647 0.749975
vt 0.000025 0.749975
vt 0.000025 0.734353
vt 0.249974 0.734353
vt 0.249974 0.749975
vt 0.234353 0.749975
vt 0.234353 0.734353
vt 0.250027 0.484360
vt 0.250027 0.499982
vt 0.125045 0.499982
vt 0.125045 0.484359
vt 0.249988 0.765863
vt 0.234364 0.765857
vt 0.234370 0.750233
vt 0.249994 0.750239
vt 0.249994 0.750024
vt 0.249994 0.765648
vt 0.234370 0.765648
vt 0.234370 0.750024
vt 0.015625 0.484375
vt 0.234375 0.484375
vt 0.234375 0.359375
vt 0.015624 0.359375
vt 0.250030 0.515639
vt 0.140670 0.515639
vt 0.140670 0.500017
vt 0.250030 0.500017
vt 0.234352 0.500025
vt 0.234352 0.515647
vt 0.015647 0.515647
vt 0.015647 0.500025
vt 0.250027 0.265641
vt 0.125044 0.265641
vt 0.249974 0.500025
vt 0.249974 0.515647
vt 0.000025 0.515647
vt 0.000025 0.500025
vt 0.109405 0.515639
vt 0.000044 0.515639
vt 0.000000 0.000000
vt 0.000000 0.000000
vt 0.000000 0.000000
vt 0.000000 0.000000
vt 0.015649 0.765630
vt 0.000024 0.765631
vt 0.015649 0.750006
vt 0.000024 0.750006
vt 0.015639 0.750030
vt 0.000017 0.640670
vt 0.015639 0.640670
vt 0.109405 0.500017
vt 0.000044 0.500017
vt 0.000000 0.000000
vt 0.000000 0.000000
vt 0.250031 0.734360
vt 0.250031 0.749983
vt 0.140670 0.749983
vt 0.140670 0.734361
vt 0.734353 0.015647
vt 0.734353 0.234353
vt 0.515647 0.234353
vt 0.515647 0.015647
vt 0.015649 0.984370
vt 0.015649 0.999994
vt 0.000024 0.999994
vt 0.000024 0.984370
vt 0.234361 0.750030
vt 0.234360 0.640670
vt 0.249983 0.640670
vt 0.140670 0.749983
vt 0.140670 0.734361
vt 0.250030 0.734360
vt 0.015646 0.484353
vt 0.015646 0.499975
vt 0.000024 0.499975
vt 0.000024 0.484353
vt 0.249973 0.484353
vt 0.249973 0.499974
vt 0.234352 0.499974
vt 0.234352 0.484353
vt 0.015646 0.250025
vt 0.015646 0.265647
vt 0.000024 0.265647
vt 0.000024 0.250025
vt 0.249973 0.250025
vt 0.249973 0.265647
vt 0.234352 0.265647
vt 0.234351 0.250025
vt 0.249982 0.375027
vt 0.234360 0.375027
vt 0.234359 0.250044
vt 0.249982 0.250044
vt 0.000000 0.000000
vt 0.000000 0.000000
vt 0.000000 0.000000
vt 0.000000 0.000000
vt 0.000000 0.000000
vt 0.000000 0.000000
vt 0.000000 0.000000
vt 0.000000 0.000000
vt 0.000000 0.000000
vt 0.000000 0.000000
vt 0.000000 0.000000
vt 0.000000 0.000000
vt 0.015641 0.375027
vt 0.000018 0.375027
vt 0.000018 0.250045
vt 0.015640 0.250044
vt 0.250027 0.250018
vt 0.250027 0.265640
vt 0.125044 0.265641
vt 0.125044 0.250018
vt 0.000000 0.000000
vt 0.000000 0.000000
vt 0.250027 0.250018
vt 0.125044 0.250018
vt 0.000000 0.000000
vt 0.000000 0.000000
vt 0.000000 0.000000
vt 0.000000 0.000000
vt 0.015641 0.500027
vt 0.000018 0.500027
vt 0.000018 0.375044
vt 0.015640 0.375044
vt 0.250027 0.484360
vt 0.250027 0.499982
vt 0.125045 0.499982
vt 0.125045 0.484360
vt 0.234375 0.265625
vt 0.109375 0.265625
vt 0.109375 0.484375
vt 0.234375 0.265625
vt 0.234375 0.484375
vt 0.109375 0.484375
vt 0.109375 0.265625
vt 0.015648 0.765630
vt 0.000024 0.765631
vt 0.250030 0.515639
vt 0.140670 0.515640
vt 0.250030 0.500017
vt 0.140670 0.500017
vt 0.015648 0.750006
vt 0.234375 0.484375
vt 0.015625 0.484375
vt 0.015624 0.359375
vt 0.234375 0.359375
vn 0.0000 -1.0000 0.0000
vn 0.0000 1.0000 0.0000
vn 1.0000 0.0000 0.0000
vn -1.0000 -0.0000 -0.0000
vn 0.0000 0.0000 -1.0000
vn -0.0000 -0.0000 1.0000
usemtl Material
s off
f 48/1/1 14/2/1 3/3/1 58/4/1
f 50/5/2 54/6/2 7/7/2 16/8/2
f 45/9/3 56/10/3 6/11/3 18/12/3
f 7/13/4 19/14/4 37/15/4 38/16/4
f 47/17/4 54/18/4 8/19/4 20/20/4
f 29/21/5 13/22/5 4/23/5 27/24/5
f 24/25/5 1/26/5 9/27/5 28/28/5
f 10/29/1 2/30/1 40/31/1 41/32/1
f 56/33/2 53/34/2 12/35/2 6/36/2
f 60/37/1 2/38/1 10/39/1 52/40/1
f 28/28/5 9/27/5 13/22/5 29/21/5
f 30/41/1 22/42/1 59/43/1 46/44/1
f 53/34/2 50/5/2 16/8/2 12/35/2
f 52/40/1 10/39/1 14/2/1 48/1/1
f 13/45/1 48/46/1 58/47/1 4/48/1
f 11/49/5 21/50/5 23/51/5 15/52/5
f 14/53/1 10/29/1 41/32/1 51/54/1
f 5/55/5 17/56/5 21/50/5 11/49/5
f 15/52/5 23/51/5 20/57/5 8/58/5
f 33/59/4 47/17/4 20/20/4 27/60/4
f 16/61/4 30/62/4 46/63/4 39/64/4
f 43/65/3 45/9/3 18/12/3 25/66/3
f 60/67/3 43/65/3 25/66/3 2/68/3
f 15/69/2 8/19/2 54/70/2 50/71/2
f 58/72/4 33/59/4 27/60/4 4/73/4
f 19/74/1 30/62/1 46/63/1 37/75/1
f 17/76/3 5/77/3 56/78/3 45/79/3
f 21/50/5 28/28/5 29/21/5 23/51/5
f 17/56/5 24/25/5 28/28/5 21/50/5
f 23/51/5 29/21/5 27/24/5 20/57/5
f 31/80/6 22/81/6 30/82/6 32/83/6
f 19/84/4 7/85/4 54/86/4 47/87/4
f 5/77/2 11/88/2 53/89/2 56/90/2
f 1/26/1 60/91/1 52/92/1 9/93/1
f 46/94/6 39/95/6 38/96/6 37/97/6
f 35/98/6 36/99/6 42/100/6 59/101/6
f 51/102/6 44/103/6 57/104/6 34/105/6
f 40/106/6 55/107/6 49/108/6 41/109/6
f 6/110/2 12/111/2 42/112/2 36/113/2
f 22/114/1 18/115/1 35/116/1 59/117/1
f 32/118/2 26/119/2 57/120/2 44/121/2
f 31/122/4 10/123/4 41/124/4 49/125/4
f 16/126/2 7/127/2 38/128/2 39/129/2
f 2/130/3 25/131/3 55/132/3 40/133/3
f 14/134/3 32/118/3 44/121/3 51/135/3
f 3/136/1 14/53/1 51/54/1 34/137/1
f 25/138/2 31/122/2 49/125/2 55/139/2
f 12/140/4 22/114/4 59/117/4 42/141/4
f 26/142/4 3/143/4 34/144/4 57/145/4
f 18/146/3 6/147/3 36/148/3 35/149/3
f 59/101/6 42/100/6 39/95/6 46/94/6
f 55/107/6 35/98/6 59/101/6 49/108/6
f 44/103/6 46/94/6 37/97/6 57/104/6
f 41/109/6 49/108/6 44/103/6 51/102/6
f 25/131/3 18/146/3 35/149/3 55/132/3
f 22/42/4 31/150/4 49/151/4 59/152/4
f 19/14/4 26/142/4 57/145/4 37/15/4
f 32/153/3 30/154/3 46/155/3 44/156/3
f 12/111/2 16/126/2 39/129/2 42/112/2
f 11/88/2 15/69/2 50/71/2 53/89/2
f 9/93/1 52/92/1 48/46/1 13/45/1
f 26/157/4 19/84/4 47/87/4 33/158/4
f 24/159/3 17/76/3 45/79/3 43/160/3
f 1/161/3 24/159/3 43/160/3 60/162/3
f 3/163/4 26/157/4 33/158/4 58/4/4
f 31/164/2 32/165/2 44/166/2 49/167/2
