# Blender v2.79 (sub 0) OBJ File: 'pipe_valve.blend'
# www.blender.org
mtllib pipe_valve.mtl
o Cube
v 0.625000 0.375000 0.000000
v 0.625000 0.375000 0.375000
v 0.375000 0.375000 0.375000
v 0.375000 0.375000 -0.000000
v 0.625000 0.625000 0.000000
v 0.625000 0.625000 0.375000
v 0.375000 0.625000 0.375000
v 0.375000 0.625000 0.000000
v 0.687500 0.312500 0.375000
v 0.312500 0.312500 0.375000
v 0.687500 0.687500 0.375000
v 0.312500 0.687500 0.375000
v 0.687500 0.312500 0.625000
v 0.312500 0.312500 0.625000
v 0.687500 0.687500 0.625000
v 0.312500 0.687500 0.625000
v 0.625000 0.375000 0.625000
v 0.375000 0.375000 0.625000
v 0.625000 0.625000 0.625000
v 0.375000 0.625000 0.625000
v 0.625000 0.375000 1.000000
v 0.375000 0.375000 1.000000
v 0.625000 0.625000 1.000000
v 0.375000 0.625000 1.000000
vt 0.468750 0.453125
vt 0.468750 0.359375
vt 0.343750 0.359375
vt 0.343750 0.453125
vt 0.468750 0.453125
vt 0.343750 0.453125
vt 0.343750 0.359375
vt 0.468750 0.359375
vt 0.406250 0.328125
vt 0.406250 0.453125
vt 0.312500 0.453125
vt 0.312500 0.328125
vt 0.179989 0.929989
vt 0.179989 0.820011
vt 0.207483 0.792516
vt 0.207483 0.957483
vt 0.312500 0.328125
vt 0.312500 0.453125
vt 0.406250 0.453125
vt 0.406250 0.328125
vt 0.406244 0.593756
vt 0.406244 0.656244
vt 0.343756 0.656244
vt 0.343756 0.593756
vt 0.145937 0.979062
vt 0.145937 0.853437
vt 0.104062 0.853437
vt 0.104062 0.979062
vt 0.070011 0.820011
vt 0.070011 0.929989
vt 0.042516 0.957483
vt 0.042516 0.792516
vt 0.208733 0.958733
vt 0.041267 0.958733
vt 0.069178 0.930822
vt 0.180822 0.930822
vt 0.083437 0.833438
vt 0.209062 0.833437
vt 0.209062 0.791562
vt 0.083437 0.791562
vt 0.229062 0.833437
vt 0.103437 0.833438
vt 0.103437 0.791563
vt 0.229062 0.791562
vt 0.145937 0.770937
vt 0.145937 0.896562
vt 0.104062 0.896562
vt 0.104062 0.770937
vt 0.437500 0.406250
vt 0.437500 0.281250
vt 0.343750 0.281250
vt 0.343750 0.406250
vt 0.208733 0.791267
vt 0.180822 0.819178
vt 0.041267 0.791267
vt 0.069178 0.819178
vt 0.406244 0.593756
vt 0.406244 0.656244
vt 0.343756 0.656244
vt 0.343756 0.593756
vt 0.281250 0.437500
vt 0.406250 0.437500
vt 0.406250 0.343750
vt 0.281250 0.343750
vt 0.406250 0.437500
vt 0.281250 0.437500
vt 0.281250 0.343750
vt 0.406250 0.343750
vt 0.437500 0.281250
vt 0.437500 0.406250
vt 0.343750 0.406250
vt 0.343750 0.281250
vn 0.0000 -1.0000 0.0000
vn 0.0000 1.0000 -0.0000
vn 1.0000 0.0000 0.0000
vn 0.0000 0.0000 -1.0000
vn -1.0000 -0.0000 -0.0000
vn -0.0000 -0.0000 1.0000
usemtl Material
s off
f 1/1/1 2/2/1 3/3/1 4/4/1
f 5/5/2 8/6/2 7/7/2 6/8/2
f 1/9/3 5/10/3 6/11/3 2/12/3
f 3/13/4 2/14/4 9/15/4 10/16/4
f 3/17/5 7/18/5 8/19/5 4/20/5
f 5/21/4 1/22/4 4/23/4 8/24/4
f 12/25/5 10/26/5 14/27/5 16/28/5
f 6/29/4 7/30/4 12/31/4 11/32/4
f 7/30/4 3/13/4 10/16/4 12/31/4
f 2/14/4 6/29/4 11/32/4 9/15/4
f 15/33/6 16/34/6 20/35/6 19/36/6
f 10/37/1 9/38/1 13/39/1 14/40/1
f 11/41/2 12/42/2 16/43/2 15/44/2
f 9/45/3 11/46/3 15/47/3 13/48/3
f 20/49/5 18/50/5 22/51/5 24/52/5
f 13/53/6 15/33/6 19/36/6 17/54/6
f 16/34/6 14/55/6 18/56/6 20/35/6
f 14/55/6 13/53/6 17/54/6 18/56/6
f 21/57/6 23/58/6 24/59/6 22/60/6
f 18/61/1 17/62/1 21/63/1 22/64/1
f 19/65/2 20/66/2 24/67/2 23/68/2
f 17/69/3 19/70/3 23/71/3 21/72/3
