# Blender v2.79 (sub 0) OBJ File: ''
# www.blender.org
mtllib pulser_inv.mtl
o Cube.002
v 1.000000 0.000000 0.000000
v 1.000000 -0.000000 1.000000
v 0.000000 -0.000000 1.000000
v 0.000000 0.000000 0.000000
v 1.000000 0.062500 0.000000
v 0.000000 0.062500 0.000000
v 0.000000 0.062500 1.000000
v 1.000000 0.062500 1.000000
vt 0.500000 0.749925
vt 0.250050 0.749975
vt 0.250050 0.499975
vt 0.499950 0.500025
vt 0.500000 0.999925
vt 0.250050 0.999925
vt 0.250050 0.750025
vt 0.499950 0.749975
vt 0.250000 0.749975
vt 0.250000 0.765575
vt 0.000000 0.765575
vt 0.000000 0.749975
vt 0.250000 0.749975
vt 0.250000 0.765575
vt 0.000000 0.765575
vt 0.000000 0.749975
vt 0.250000 0.765575
vt 0.250000 0.749975
vt 0.000000 0.749975
vt 0.000000 0.765575
vn 0.0000 -1.0000 -0.0000
vn 0.0000 1.0000 0.0000
vn 1.0000 0.0000 0.0000
vn 0.0000 0.0000 1.0000
vn -1.0000 0.0000 0.0000
vn 0.0000 0.0000 -1.0000
usemtl Material.002
s 1
f 1/1/1 2/2/1 3/3/1 4/4/1
f 5/5/2 6/6/2 7/7/2 8/8/2
f 1/9/3 5/10/3 8/11/3 2/12/3
f 2/13/4 8/14/4 7/15/4 3/16/4
f 3/16/5 7/15/5 6/17/5 4/18/5
f 5/10/6 1/9/6 4/19/6 6/20/6
