# Blender v2.79 (sub 0) OBJ File: ''
# www.blender.org
mtllib reclaimer.mtl
o Cube
v 1.000000 0.000000 0.000000
v 1.000000 0.000000 1.000000
v -0.000000 0.000000 1.000000
v 0.000000 0.000000 -0.000000
v 1.000000 1.000000 0.000000
v 1.000000 1.000000 1.000000
v -0.000000 1.000000 1.000000
v 0.000000 1.000000 0.000000
v 0.937500 1.000000 0.062500
v 0.937500 1.000000 0.937500
v 0.062500 1.000000 0.937500
v 0.062500 1.000000 0.062500
v 0.937500 0.750000 0.062500
v 0.937500 0.750000 0.937500
v 0.062500 0.750000 0.937500
v 0.062500 0.750000 0.062500
v 1.000000 0.375000 0.000000
v 1.000000 0.375000 1.000000
v -0.000000 0.375000 1.000000
v 0.000000 0.375000 -0.000000
v 1.000000 0.625000 0.000000
v 1.000000 0.625000 1.000000
v -0.000000 0.625000 1.000000
v 0.000000 0.625000 -0.000000
v 0.625000 0.000000 -0.000000
v 0.625000 0.000000 1.000000
v 0.625000 1.000000 0.000000
v 0.625000 1.000000 1.000000
v 0.625000 1.000000 0.062500
v 0.625000 1.000000 0.937500
v 0.625000 0.750000 0.062500
v 0.625000 0.750000 0.937500
v 0.625000 0.375000 0.000000
v 0.625000 0.375000 1.000000
v 0.625000 0.625000 0.000000
v 0.625000 0.625000 1.000000
v 0.364583 0.000000 -0.000000
v 0.364583 0.000000 1.000000
v 0.364583 1.000000 0.000000
v 0.364583 1.000000 1.000000
v 0.395833 1.000000 0.062500
v 0.395833 1.000000 0.937500
v 0.395833 0.750000 0.062500
v 0.395833 0.750000 0.937500
v 0.364583 0.375000 -0.000000
v 0.364583 0.375000 1.000000
v 0.364583 0.625000 0.000000
v 0.364583 0.625000 1.000000
v 1.000000 0.000000 0.375000
v 0.000000 0.000000 0.375000
v 1.000000 1.000000 0.375000
v -0.000000 1.000000 0.375000
v 0.937500 1.000000 0.375000
v 0.062500 1.000000 0.375000
v 0.937500 0.750000 0.375000
v 0.062500 0.750000 0.375000
v 0.000000 0.375000 0.375000
v 1.000000 0.375000 0.375000
v 0.000000 0.625000 0.375000
v 1.000000 0.625000 0.375000
v 0.625000 0.750000 0.375000
v 0.625000 0.000000 0.375000
v 0.395833 0.750000 0.375000
v 0.364583 0.000000 0.375000
v 1.000000 0.000000 0.636719
v 1.000000 1.000000 0.636719
v 0.937500 1.000000 0.605469
v 0.937500 0.750000 0.605469
v 1.000000 0.375000 0.636719
v 1.000000 0.625000 0.636719
v 0.625000 0.750000 0.605469
v 0.395833 0.750000 0.605469
v 0.000000 0.000000 0.636719
v -0.000000 1.000000 0.636719
v 0.062500 1.000000 0.605469
v 0.062500 0.750000 0.605469
v -0.000000 0.375000 0.636719
v -0.000000 0.625000 0.636719
v 0.625000 0.000000 0.636719
v 0.364583 0.000000 0.636719
v 0.250000 0.375000 0.636719
v 0.250000 0.375000 0.375000
v 0.250000 0.625000 0.636719
v 0.250000 0.625000 0.375000
v 0.750000 0.625000 0.375000
v 0.750000 0.375000 0.375000
v 0.750000 0.375000 0.636719
v 0.750000 0.625000 0.636719
v 0.625000 0.625000 0.750000
v 0.625000 0.375000 0.750000
v 0.625000 0.375000 0.250000
v 0.625000 0.625000 0.250000
v 0.364583 0.375000 0.250000
v 0.364583 0.375000 0.750000
v 0.364583 0.625000 0.250000
v 0.364583 0.625000 0.750000
vt 0.090827 0.591153
vt 0.000025 0.591153
vt 0.000025 0.500025
vt 0.090827 0.500025
vt 0.156244 0.750025
vt 0.249975 0.750025
vt 0.234353 0.765647
vt 0.156244 0.765647
vt 0.090827 0.656244
vt 0.090827 0.749975
vt 0.000025 0.749975
vt 0.000025 0.656244
vt 0.091153 0.656244
vt 0.091153 0.749975
vt 0.000025 0.749975
vt 0.000025 0.656244
vt 0.156244 0.593756
vt 0.156244 0.500025
vt 0.249975 0.500025
vt 0.249975 0.593756
vt 0.091153 0.656244
vt 0.091153 0.749975
vt 0.000025 0.749975
vt 0.000025 0.656244
vt 0.098633 1.000000
vt 0.015625 1.000000
vt 0.015625 0.937500
vt 0.098633 0.937500
vt 0.249975 0.906244
vt 0.249975 0.999975
vt 0.234353 0.984353
vt 0.234353 0.906244
vt 0.000025 0.840827
vt 0.015647 0.765647
vt 0.015647 0.848638
vt 0.091153 0.999975
vt 0.000025 0.999975
vt 0.015647 0.984353
vt 0.098963 0.984353
vt 0.349112 0.598789
vt 0.266272 0.598789
vt 0.266272 0.516272
vt 0.349112 0.516272
vt 0.098958 1.000000
vt 0.015625 1.000000
vt 0.015625 0.937500
vt 0.098958 0.937500
vt 0.156250 1.000000
vt 0.234375 1.000000
vt 0.234375 0.937500
vt 0.156250 0.937500
vt 0.155273 1.000000
vt 0.233398 1.000000
vt 0.233398 0.937500
vt 0.155273 0.937500
vt 0.091153 0.593756
vt 0.000025 0.593756
vt 0.156244 0.749975
vt 0.156244 0.656244
vt 0.249975 0.656244
vt 0.249975 0.749975
vt 0.091153 0.500025
vt 0.091153 0.593756
vt 0.000025 0.593756
vt 0.090827 0.500025
vt 0.090827 0.593756
vt 0.000025 0.593756
vt 0.000025 0.500025
vt 0.091153 0.500025
vt 0.000025 0.500025
vt 0.249975 0.593756
vt 0.249975 0.656244
vt 0.156244 0.656244
vt 0.156244 0.593756
vt 0.249975 0.500025
vt 0.249975 0.593756
vt 0.156244 0.593756
vt 0.156244 0.500025
vt 0.249975 0.500025
vt 0.156244 0.500025
vt 0.249975 0.656244
vt 0.156244 0.656244
vt 0.098958 1.000000
vt 0.098958 0.937500
vt 0.234375 1.000000
vt 0.156250 1.000000
vt 0.156250 0.937500
vt 0.234375 0.937500
vt 0.483728 0.598789
vt 0.406065 0.598789
vt 0.406065 0.516272
vt 0.483728 0.516272
vt 0.156244 0.999975
vt 0.156244 0.984353
vt 0.249975 0.749975
vt 0.156244 0.749975
vt 0.098963 0.765647
vt 0.090827 0.749975
vt 0.000025 0.749975
vt 0.000025 0.656244
vt 0.090827 0.656244
vt 0.044271 0.828125
vt 0.109375 0.828125
vt 0.109375 0.765625
vt 0.044271 0.765625
vt 0.042969 0.828125
vt 0.042969 0.765625
vt 0.105469 0.765625
vt 0.105469 0.828125
vt 0.249975 0.656244
vt 0.156244 0.656244
vt 0.156244 0.591153
vt 0.249975 0.591153
vt 0.406065 0.733728
vt 0.349112 0.733728
vt 0.349112 0.656065
vt 0.406065 0.656065
vt 0.156244 0.749975
vt 0.483728 0.733728
vt 0.483728 0.656065
vt 0.249975 0.593756
vt 0.249975 0.656244
vt 0.156244 0.656244
vt 0.156244 0.593756
vt 0.156250 0.901855
vt 0.156250 0.964355
vt 0.093750 0.964355
vt 0.093750 0.901855
vt 0.249975 0.500025
vt 0.156244 0.500025
vt 0.090827 0.749975
vt 0.090827 0.656244
vt 0.097656 1.000000
vt 0.097656 0.937500
vt 0.266272 0.733728
vt 0.266272 0.656065
vt 0.000025 0.906244
vt 0.015647 0.906244
vt 0.249975 0.840827
vt 0.234353 0.848638
vt 0.234375 1.000000
vt 0.156250 1.000000
vt 0.156250 0.937500
vt 0.234375 0.937500
vt 0.090827 0.593756
vt 0.090827 0.500025
vt 0.249975 0.749975
vt 0.156244 0.749975
vt 0.156244 0.500025
vt 0.249975 0.500025
vt 0.000025 0.593756
vt 0.000025 0.500025
vt 0.014648 1.000000
vt 0.014648 0.937500
vt 0.000025 0.749975
vt 0.000025 0.656244
vt 0.156250 0.964355
vt 0.156250 0.901855
vt 0.093750 0.901855
vt 0.093750 0.964355
vt 0.090827 0.156244
vt 0.090827 0.093756
vt 0.156244 0.093756
vt 0.156244 0.156244
vt 0.156244 0.093756
vt 0.156244 0.156244
vt 0.090827 0.156244
vt 0.090827 0.093756
vt 0.156250 0.773926
vt 0.156250 0.839355
vt 0.093750 0.839355
vt 0.093750 0.773926
vt 0.093750 0.773926
vt 0.093750 0.839356
vt 0.156250 0.839356
vt 0.156250 0.773926
vt 0.093750 0.964356
vt 0.093750 0.901856
vt 0.156250 0.901856
vt 0.156250 0.964356
vt 0.093750 0.901856
vt 0.093750 0.964356
vt 0.156250 0.964356
vt 0.156250 0.901856
vt 0.093750 0.839356
vt 0.093750 0.773926
vt 0.156250 0.773926
vt 0.156250 0.839356
vt 0.156250 0.839355
vt 0.156250 0.773926
vt 0.093750 0.773926
vt 0.093750 0.839355
vt 0.156244 0.093756
vt 0.156244 0.156244
vt 0.091153 0.156244
vt 0.091153 0.093756
vt 0.156244 0.093756
vt 0.156244 0.156244
vt 0.091153 0.156244
vt 0.091153 0.093756
vt 0.042969 0.765625
vt 0.042969 0.828125
vt 0.105469 0.828125
vt 0.105469 0.765625
vt 0.109375 0.828125
vt 0.044271 0.828125
vt 0.044271 0.765625
vt 0.109375 0.765625
vt 0.078125 0.796875
vt 0.078125 0.859375
vt 0.015625 0.859375
vt 0.015625 0.796875
vt 0.078125 0.859375
vt 0.078125 0.796875
vt 0.015625 0.796875
vt 0.015625 0.859375
vt 0.074219 0.796875
vt 0.009115 0.796875
vt 0.009115 0.859375
vt 0.074219 0.859375
vt 0.009115 0.796875
vt 0.074219 0.796875
vt 0.074219 0.859375
vt 0.009115 0.859375
vn 0.0000 -1.0000 0.0000
vn 0.0000 1.0000 0.0000
vn 1.0000 0.0000 0.0000
vn -0.0000 0.0000 1.0000
vn -1.0000 -0.0000 -0.0000
vn 0.0000 0.0000 -1.0000
usemtl Material
s off
f 80/1/1 38/2/1 3/3/1 73/4/1
f 28/5/2 6/6/2 10/7/2 30/8/2
f 70/9/3 66/10/3 6/11/3 22/12/3
f 48/13/4 40/14/4 7/15/4 23/16/4
f 59/17/5 52/18/5 8/19/5 24/20/5
f 45/21/6 37/22/6 4/23/6 20/24/6
f 75/25/3 11/26/3 15/27/3 76/28/3
f 51/29/2 5/30/2 9/31/2 53/32/2
f 74/33/2 7/15/2 11/34/2 75/35/2
f 39/36/2 8/37/2 12/38/2 41/39/2
f 72/40/2 76/41/2 15/42/2 44/43/2
f 41/44/4 12/45/4 16/46/4 43/47/4
f 30/48/6 10/49/6 14/50/6 32/51/6
f 53/52/5 9/53/5 13/54/5 55/55/5
f 47/56/6 45/21/6 20/24/6 24/57/6
f 50/58/5 57/59/5 20/60/5 4/61/5
f 38/62/4 46/63/4 19/64/4 3/3/4
f 65/65/3 69/66/3 18/67/3 2/68/3
f 39/69/6 47/56/6 24/57/6 8/70/6
f 57/59/5 59/17/5 24/20/5 20/60/5
f 46/63/4 48/13/4 23/16/4 19/64/4
f 69/66/3 70/9/3 22/12/3 18/67/3
f 18/71/4 22/72/4 36/73/4 34/74/4
f 5/75/6 21/76/6 35/77/6 27/78/6
f 2/79/4 18/71/4 34/74/4 26/80/4
f 21/76/6 17/81/6 33/82/6 35/77/6
f 42/83/6 30/48/6 32/51/6 44/84/6
f 9/85/4 29/86/4 31/87/4 13/88/4
f 68/89/2 71/90/2 32/91/2 14/92/2
f 5/30/2 27/93/2 29/94/2 9/31/2
f 17/81/6 1/95/6 25/96/6 33/82/6
f 22/72/4 6/6/4 28/5/4 36/73/4
f 40/14/2 28/5/2 30/8/2 42/97/2
f 65/98/1 2/99/1 26/100/1 79/101/1
f 7/15/2 40/14/2 42/97/2 11/34/2
f 11/26/6 42/83/6 44/84/6 15/27/6
f 47/102/1 35/103/1 92/104/1 95/105/1
f 27/78/6 35/77/6 47/56/6 39/69/6
f 26/80/4 34/74/4 46/63/4 38/62/4
f 48/106/3 46/107/3 94/108/3 96/109/3
f 29/86/4 41/44/4 43/47/4 31/87/4
f 71/90/2 72/40/2 44/43/2 32/91/2
f 27/93/2 39/36/2 41/39/2 29/94/2
f 33/82/6 25/96/6 37/22/6 45/21/6
f 36/73/4 28/5/4 40/14/4 48/13/4
f 79/101/1 26/100/1 38/2/1 80/1/1
f 25/110/1 62/111/1 64/112/1 37/113/1
f 31/114/2 43/115/2 63/116/2 61/117/2
f 1/95/1 49/118/1 62/111/1 25/110/1
f 13/119/2 31/114/2 61/117/2 55/120/2
f 17/121/3 21/122/3 60/123/3 58/124/3
f 58/125/4 60/126/4 85/127/4 86/128/4
f 1/129/3 17/121/3 58/124/3 49/130/3
f 73/131/5 77/132/5 57/59/5 50/58/5
f 67/133/5 53/52/5 55/55/5 68/134/5
f 43/115/2 16/135/2 56/136/2 63/116/2
f 8/37/2 52/137/2 54/138/2 12/38/2
f 66/139/2 51/29/2 53/32/2 67/140/2
f 12/141/3 54/142/3 56/143/3 16/144/3
f 78/145/5 74/146/5 52/18/5 59/17/5
f 21/122/3 5/147/3 51/148/3 60/123/3
f 37/113/1 64/112/1 50/149/1 4/150/1
f 23/151/5 7/152/5 74/146/5 78/145/5
f 6/6/2 66/139/2 67/140/2 10/7/2
f 10/153/5 67/133/5 68/134/5 14/154/5
f 3/155/5 19/156/5 77/132/5 73/131/5
f 19/156/5 23/151/5 78/145/5 77/132/5
f 62/111/1 79/101/1 80/1/1 64/112/1
f 61/117/2 63/116/2 72/40/2 71/90/2
f 49/118/1 65/98/1 79/101/1 62/111/1
f 55/120/2 61/117/2 71/90/2 68/89/2
f 70/157/6 69/158/6 87/159/6 88/160/6
f 49/130/3 58/124/3 69/66/3 65/65/3
f 63/116/2 56/136/2 76/41/2 72/40/2
f 52/137/2 74/33/2 75/35/2 54/138/2
f 54/142/3 75/25/3 76/28/3 56/143/3
f 60/123/3 51/148/3 66/10/3 70/9/3
f 64/112/1 80/1/1 73/4/1 50/149/1
f 81/161/5 83/162/5 84/163/5 82/164/5
f 86/165/3 85/166/3 88/167/3 87/168/3
f 69/169/2 58/170/2 86/171/2 87/172/2
f 78/173/1 59/174/1 84/175/1 83/176/1
f 59/177/4 57/178/4 82/179/4 84/180/4
f 77/181/6 78/182/6 83/183/6 81/184/6
f 57/185/2 77/186/2 81/187/2 82/188/2
f 60/189/1 70/190/1 88/191/1 85/192/1
f 90/193/4 89/194/4 96/195/4 94/196/4
f 92/197/6 91/198/6 93/199/6 95/200/6
f 34/201/5 36/202/5 89/203/5 90/204/5
f 33/205/2 45/206/2 93/207/2 91/208/2
f 45/209/3 47/210/3 95/211/3 93/212/3
f 35/213/5 33/214/5 91/215/5 92/216/5
f 36/217/1 48/218/1 96/219/1 89/220/1
f 46/221/2 34/222/2 90/223/2 94/224/2
