# Blender v2.78 (sub 0) OBJ File: ''
# www.blender.org
mtllib redplate.mtl
o Cube
v 1.000000 0.000000 0.000000
v 1.000000 0.000000 1.000000
v -0.000000 0.000000 1.000000
v 0.000000 0.000000 -0.000000
v 1.000000 0.062500 0.000000
v 1.000000 0.062500 1.000000
v -0.000000 0.062500 1.000000
v 0.000000 0.062500 0.000000
vt 1.0000 0.2500
vt 0.7500 0.2500
vt 0.7500 0.0000
vt 1.0000 0.0000
vt 1.0000 0.2500
vt 0.7500 0.2500
vt 0.7500 0.0000
vt 1.0000 0.0000
vt 1.0000 0.2344
vt 0.7500 0.2500
vt 0.7500 0.2344
vt 1.0000 0.2344
vt 1.0000 0.2500
vt 0.7500 0.2500
vt 0.7500 0.2344
vt 1.0000 0.2500
vt 1.0000 0.2344
vt 0.7500 0.2344
vn 0.0000 -1.0000 0.0000
vn 0.0000 1.0000 0.0000
vn 1.0000 0.0000 0.0000
vn -0.0000 -0.0000 1.0000
vn -1.0000 -0.0000 -0.0000
vn 0.0000 0.0000 -1.0000
usemtl Material
s off
f 1/1/1 2/2/1 3/3/1 4/4/1
f 5/5/2 8/6/2 7/7/2 6/8/2
f 1/9/3 5/5/3 6/10/3 2/11/3
f 2/12/4 6/13/4 7/14/4 3/15/4
f 3/15/5 7/14/5 8/16/5 4/17/5
f 5/5/6 1/9/6 4/18/6 8/6/6
